waveform.vcd
$date
	Mon Jun  1 11:24:07 2026
$end
$version
	Icarus Verilog
$end
$timescale
	1ps
$end
$scope module bnn_core_tb $end
$var wire 1 ! spi_miso $end
$var wire 1 " fpga_done $end
$var parameter 32 # MAX_DONE_CYCLES $end
$var parameter 32 $ NUM_VECTORS $end
$var reg 2 % got_decision [1:0] $end
$var reg 1 & rst_n $end
$var reg 1 ' spi_cs_n $end
$var reg 1 ( spi_mosi $end
$var reg 1 ) spi_sclk $end
$var reg 1 * sys_clk $end
$var integer 32 + fail_count [31:0] $end
$var integer 32 , i [31:0] $end
$var integer 32 - latency_cycles [31:0] $end
$var integer 32 . max_latency_cycles [31:0] $end
$var integer 32 / pass_count [31:0] $end
$scope module dut $end
$var wire 1 " fpga_done $end
$var wire 1 & rst_n $end
$var wire 1 ' spi_cs_n $end
$var wire 1 ( spi_mosi $end
$var wire 1 ) spi_sclk $end
$var wire 1 * sys_clk $end
$var wire 1 ! spi_miso $end
$var wire 1 0 spi_cs_falling $end
$var wire 1 1 bram_we $end
$var wire 8 2 bram_wdata [7:0] $end
$var wire 8 3 bram_waddr [7:0] $end
$var wire 64 4 bram_rdata [63:0] $end
$var wire 5 5 bram_raddr [4:0] $end
$var wire 1 6 bnn_start $end
$var wire 16 7 bnn_spike_vector [15:0] $end
$var wire 1 8 bnn_done $end
$var wire 2 9 bnn_decision [1:0] $end
$var reg 1 : done_latch $end
$var reg 3 ; spi_cs_sync [2:0] $end
$scope module u_bnn_core $end
$var wire 1 * clk $end
$var wire 1 & rst_n $end
$var wire 1 6 start $end
$var wire 16 < spike_vector [15:0] $end
$var wire 7 = l2_total_pop [6:0] $end
$var wire 64 > bram_rdata [63:0] $end
$var parameter 4 ? STATE_ARGMAX $end
$var parameter 4 @ STATE_IDLE $end
$var parameter 4 A STATE_L1_PREFETCH $end
$var parameter 4 B STATE_L2_PREFETCH $end
$var parameter 4 C STATE_LAYER1 $end
$var parameter 4 D STATE_LAYER2 $end
$var reg 5 E bram_raddr [4:0] $end
$var reg 5 F cycle_cnt [4:0] $end
$var reg 2 G decision [1:0] $end
$var reg 1 8 done $end
$var reg 64 H layer1_out [63:0] $end
$var reg 7 I score0 [6:0] $end
$var reg 7 J score1 [6:0] $end
$var reg 7 K score2 [6:0] $end
$var reg 4 L state [3:0] $end
$scope begin gen_units[0] $end
$var parameter 2 M i $end
$scope module xpu $end
$var wire 16 N inputs [15:0] $end
$var wire 16 O weights [15:0] $end
$var wire 16 P xnor_out [15:0] $end
$var wire 5 Q popcount [4:0] $end
$var parameter 32 R WIDTH $end
$var reg 5 S sum [4:0] $end
$var integer 32 T i [31:0] $end
$upscope $end
$upscope $end
$scope begin gen_units[1] $end
$var parameter 2 U i $end
$scope module xpu $end
$var wire 16 V inputs [15:0] $end
$var wire 16 W weights [15:0] $end
$var wire 16 X xnor_out [15:0] $end
$var wire 5 Y popcount [4:0] $end
$var parameter 32 Z WIDTH $end
$var reg 5 [ sum [4:0] $end
$var integer 32 \ i [31:0] $end
$upscope $end
$upscope $end
$scope begin gen_units[2] $end
$var parameter 3 ] i $end
$scope module xpu $end
$var wire 16 ^ inputs [15:0] $end
$var wire 16 _ weights [15:0] $end
$var wire 16 ` xnor_out [15:0] $end
$var wire 5 a popcount [4:0] $end
$var parameter 32 b WIDTH $end
$var reg 5 c sum [4:0] $end
$var integer 32 d i [31:0] $end
$upscope $end
$upscope $end
$scope begin gen_units[3] $end
$var parameter 3 e i $end
$scope module xpu $end
$var wire 16 f inputs [15:0] $end
$var wire 16 g weights [15:0] $end
$var wire 16 h xnor_out [15:0] $end
$var wire 5 i popcount [4:0] $end
$var parameter 32 j WIDTH $end
$var reg 5 k sum [4:0] $end
$var integer 32 l i [31:0] $end
$upscope $end
$upscope $end
$upscope $end
$scope module u_bram_weights $end
$var wire 1 * clk $end
$var wire 5 m raddr [4:0] $end
$var wire 5 n word_waddr [4:0] $end
$var wire 1 1 we $end
$var wire 8 o wdata [7:0] $end
$var wire 8 p waddr [7:0] $end
$var wire 3 q byte_sel [2:0] $end
$var reg 64 r rdata [63:0] $end
$var integer 32 s i [31:0] $end
$var integer 32 t j [31:0] $end
$upscope $end
$scope module u_spi_slave $end
$var wire 2 u bnn_decision [1:0] $end
$var wire 1 ' cs_n $end
$var wire 1 ( mosi $end
$var wire 1 v packet_ready $end
$var wire 1 & rst_n $end
$var wire 1 ) sclk $end
$var wire 1 * sys_clk $end
$var wire 8 w tx_data [7:0] $end
$var wire 1 ! miso $end
$var wire 1 x cs_n_falling_latch $end
$var reg 6 y bit_count [5:0] $end
$var reg 16 z bnn_spike_vector [15:0] $end
$var reg 1 6 bnn_start $end
$var reg 8 { bram_waddr [7:0] $end
$var reg 8 | bram_wdata [7:0] $end
$var reg 1 1 bram_we $end
$var reg 3 } cs_n_sync_for_latch [2:0] $end
$var reg 2 ~ decision_latched [1:0] $end
$var reg 24 !" packet_sclk [23:0] $end
$var reg 1 "" packet_toggle_sclk $end
$var reg 3 #" packet_toggle_sync [2:0] $end
$var reg 24 $" shift_rx [23:0] $end
$var reg 3 %" tx_bit_count [2:0] $end
$upscope $end
$upscope $end
$scope begin spi_overflow_test $end
$var reg 2 &" overflow_decision [1:0] $end
$var reg 24 '" packet [23:0] $end
$var integer 32 (" j [31:0] $end
$upscope $end
$scope task spi_read_decision $end
$var reg 2 )" decision [1:0] $end
$var reg 8 *" rx_byte [7:0] $end
$var integer 32 +" j [31:0] $end
$upscope $end
$scope task spi_send_spike $end
$var reg 24 ," packet [23:0] $end
$var reg 16 -" spike [15:0] $end
$var integer 32 ." j [31:0] $end
$upscope $end
$upscope $end
$enddefinitions $end
$comment Show the parameter values. $end
$dumpall
b10000 j
b11 e
b10000 b
b10 ]
b10000 Z
b1 U
b10000 R
b0 M
b100 D
b10 C
b11 B
b1 A
b0 @
b101 ?
b1100100 $
b1000000 #
$end
#0
$dumpvars
bx ."
bx -"
bx ,"
bx +"
bx *"
bx )"
bx ("
bx '"
bx &"
b0 %"
b0 $"
b0 #"
0""
b0 !"
b0 ~
b111 }
b0 |
b0 {
b0 z
b0 y
0x
b0 w
0v
b0 u
b1000000 t
b100000 s
bx r
b0 q
b0 p
b0 o
b0 n
b0 m
bx l
bx k
bx i
bx h
bx g
b0 f
bx d
bx c
bx a
bx `
bx _
b0 ^
bx \
bx [
bx Y
bx X
bx W
b0 V
bx T
bx S
bx Q
bx P
bx O
b0 N
b0 L
b0 K
b0 J
b0 I
b0 H
b0 G
b0 F
b0 E
bx >
bx =
b0 <
b111 ;
0:
b0 9
08
b0 7
06
b0 5
bx 4
b0 3
b0 2
01
00
b0 /
b0 .
bx -
bx ,
b0 +
0*
0)
0(
1'
0&
bx %
0"
0!
$end
#5000
b11001 =
b10000 l
b1000 i
b1000 k
b10000 d
b101 a
b101 c
b10000 \
b101 Y
b101 [
b10000 T
b111 Q
b111 S
b1010001101001011 h
b1111001000000 `
b101100100100000 X
b10100111100010 P
b101110010110100 g
b1110000110111111 _
b1010011011011111 W
b1101011000011101 O
b101110010110100111000011011111110100110110111111101011000011101 4
b101110010110100111000011011111110100110110111111101011000011101 >
b101110010110100111000011011111110100110110111111101011000011101 r
1*
#10000
0*
#15000
1*
#20000
0*
#25000
1*
#30000
0*
#35000
1*
#40000
0*
#45000
1*
#50000
0*
#55000
1*
#60000
0*
#65000
1*
#70000
0*
#75000
1*
#80000
0*
#85000
1*
#90000
0*
#95000
1*
#100000
0*
1&
#105000
1*
#110000
0*
#115000
1*
#120000
0*
#125000
1*
#130000
0*
#135000
1*
#140000
0*
#145000
1*
#150000
0*
#155000
1*
#160000
0*
#165000
1*
#170000
0*
#175000
1*
#180000
0*
#185000
1*
#190000
0*
#195000
1*
#200000
0*
0'
b100001000100010 ,"
b100001000100010 -"
b0 ,
#205000
b110 ;
b110 }
1*
#210000
0*
#215000
1x
10
b100 }
b100 ;
1*
#220000
0*
b10111 ."
#225000
00
0x
b0 ;
b0 }
1*
#230000
0*
#232500
b1 y
1)
#235000
1*
#240000
0*
#245000
b1 %"
1*
b10110 ."
0)
#250000
0*
#255000
1*
#257500
b10 y
1)
#260000
0*
#265000
1*
#270000
b10 %"
0*
b10101 ."
0)
#275000
1*
#280000
0*
#282500
b11 y
1)
#285000
1*
#290000
0*
#295000
b11 %"
1*
b10100 ."
0)
#300000
0*
#305000
1*
#307500
b100 y
1)
#310000
0*
#315000
1*
#320000
b100 %"
0*
b10011 ."
0)
#325000
1*
#330000
0*
#332500
b101 y
1)
#335000
1*
#340000
0*
#345000
b101 %"
1*
b10010 ."
0)
#350000
0*
#355000
1*
#357500
b110 y
1)
#360000
0*
#365000
1*
#370000
b110 %"
0*
b10001 ."
0)
#375000
1*
#380000
0*
#382500
b111 y
1)
#385000
1*
#390000
0*
#395000
b111 %"
1*
b10000 ."
0)
#400000
0*
#405000
1*
#407500
b1000 y
1)
#410000
0*
#415000
1*
#420000
0*
b1111 ."
0)
#425000
1*
#430000
0*
#432500
b1001 y
1)
#435000
1*
#440000
0*
#445000
1*
1(
b1110 ."
0)
#450000
0*
#455000
1*
#457500
b1010 y
b1 $"
1)
#460000
0*
#465000
1*
#470000
0*
0(
b1101 ."
0)
#475000
1*
#480000
0*
#482500
b1011 y
b10 $"
1)
#485000
1*
#490000
0*
#495000
1*
b1100 ."
0)
#500000
0*
#505000
1*
#507500
b1100 y
b100 $"
1)
#510000
0*
#515000
1*
#520000
0*
b1011 ."
0)
#525000
1*
#530000
0*
#532500
b1101 y
b1000 $"
1)
#535000
1*
#540000
0*
#545000
1*
b1010 ."
0)
#550000
0*
#555000
1*
#557500
b1110 y
b10000 $"
1)
#560000
0*
#565000
1*
#570000
0*
1(
b1001 ."
0)
#575000
1*
#580000
0*
#582500
b1111 y
b100001 $"
1)
#585000
1*
#590000
0*
#595000
1*
0(
b1000 ."
0)
#600000
0*
#605000
1*
#607500
b10000 y
b1000010 $"
1)
#610000
0*
#615000
1*
#620000
0*
b111 ."
0)
#625000
1*
#630000
0*
#632500
b10001 y
b10000100 $"
1)
#635000
1*
#640000
0*
#645000
1*
b110 ."
0)
#650000
0*
#655000
1*
#657500
b10010 y
b100001000 $"
1)
#660000
0*
#665000
1*
#670000
0*
1(
b101 ."
0)
#675000
1*
#680000
0*
#682500
b10011 y
b1000010001 $"
1)
#685000
1*
#690000
0*
#695000
1*
0(
b100 ."
0)
#700000
0*
#705000
1*
#707500
b10100 y
b10000100010 $"
1)
#710000
0*
#715000
1*
#720000
0*
b11 ."
0)
#725000
1*
#730000
0*
#732500
b10101 y
b100001000100 $"
1)
#735000
1*
#740000
0*
#745000
1*
b10 ."
0)
#750000
0*
#755000
1*
#757500
b10110 y
b1000010001000 $"
1)
#760000
0*
#765000
1*
#770000
0*
1(
b1 ."
0)
#775000
1*
#780000
0*
#782500
b10111 y
b10000100010001 $"
1)
#785000
1*
#790000
0*
#795000
1*
0(
b0 ."
0)
#800000
0*
#805000
1*
#807500
b11000 y
b100001000100010 $"
1)
#810000
0*
#815000
1*
#820000
0*
b11111111111111111111111111111111 ."
0)
#825000
1*
#830000
0*
#835000
1*
#840000
b0 y
b0 $"
1""
b100001000100010 !"
b0 %"
0*
b0 -
1'
#845000
b1 ;
b1 #"
b1 }
b1 -
1*
#850000
0*
#855000
1v
b11 }
b11 #"
b11 ;
b10 -
1*
#860000
0*
#865000
0v
b111 ;
b100001000100010 7
b100001000100010 <
b100001000100010 z
16
b111 #"
b111 }
b11 -
1*
#870000
0*
#875000
06
b1 L
b100 -
1*
#880000
0*
#885000
b11011 =
b10000 T
b111 Q
b111 S
b10000 \
b101 Y
b101 [
b10000 d
b111 a
b111 c
b10000 l
b1000 i
b1000 k
b110101111000000 P
b1101100000010 X
b101110001100010 `
b1110000101101001 h
b1 5
b1 E
b1 m
b100001000100010 N
b100001000100010 V
b100001000100010 ^
b100001000100010 f
b10 L
b101 -
1*
#890000
0*
#895000
b100011 =
b10000 l
b1000 i
b1000 k
b10000 d
b1001 a
b1001 c
b10000 \
b1000 Y
b1000 [
b10000 T
b1010 Q
b1010 S
b10101100110110 h
b1011011000011101 `
b11000100111011 X
b100100011111111 P
b10 5
b10 E
b10 m
b1001011011101011 g
b101111000000 _
b1000110011100110 W
b1111010100100010 O
b1 F
b1000 H
b1001011011101011000010111100000010001100111001101111010100100010 4
b1001011011101011000010111100000010001100111001101111010100100010 >
b1001011011101011000010111100000010001100111001101111010100100010 r
b110 -
1*
#900000
0*
#905000
b100001 =
b10000 l
b1010 i
b1010 k
b10000 d
b111 a
b111 c
b10000 \
b100 Y
b100 [
b10000 T
b1100 Q
b1100 S
b1110001110110101 h
b110110000011010 `
b1010001000010 X
b1111110100111011 P
b11 5
b11 E
b11 m
b101111001101000 g
b1101000111000111 _
b1010100110011111 W
b100000011100110 O
b10 F
b11111000 H
b101111001101000110100011100011110101001100111110100000011100110 4
b101111001101000110100011100011110101001100111110100000011100110 >
b101111001101000110100011100011110101001100111110100000011100110 r
b111 -
1*
#910000
0*
#915000
b100011 =
b10000 l
b1000 i
b1000 k
b10000 d
b1010 a
b1010 c
b10000 \
b1000 Y
b1000 [
b10000 T
b1001 Q
b1001 S
b101000001110111 h
b1010100110111011 `
b111111110000000 X
b110110010110101 P
b100 5
b100 E
b100 m
b1110110110101010 g
b1010001100110 _
b1100001001011101 W
b1101000101101000 O
b11 F
b100111111000 H
b1110110110101010000101000110011011000010010111011101000101101000 4
b1110110110101010000101000110011011000010010111011101000101101000 >
b1110110110101010000101000110011011000010010111011101000101101000 r
b1000 -
1*
#920000
0*
#925000
b11101 =
b10000 l
b1000 i
b1000 k
b10000 d
b1001 a
b1001 c
b10000 \
b111 Y
b111 [
b10000 T
b101 Q
b101 S
b10111001110010 h
b100110101011011 `
b11101000100110 X
b1000011001001 P
b101 5
b101 E
b101 m
b1001001110101111 g
b1111000010000110 _
b1000011111111011 W
b1010110100010100 O
b100 F
b1111100111111000 H
b1001001110101111111100001000011010000111111110111010110100010100 4
b1001001110101111111100001000011010000111111110111010110100010100 >
b1001001110101111111100001000011010000111111110111010110100010100 r
b1001 -
1*
#930000
0*
#935000
b11101 =
b10000 l
b110 i
b110 k
b10000 d
b1001 a
b1001 c
b10000 \
b111 Y
b111 [
b10000 T
b111 Q
b111 S
b1100010001001001 h
b101110110111000 `
b111000011011 X
b1101000010001011 P
b110 5
b110 E
b110 m
b111100110010100 g
b1110000001100101 _
b1011001111000110 W
b110110101010110 O
b101 F
b11001111100111111000 H
b111100110010100111000000110010110110011110001100110110101010110 4
b111100110010100111000000110010110110011110001100110110101010110 >
b111100110010100111000000110010110110011110001100110110101010110 r
b1010 -
1*
#940000
0*
#945000
b11100 =
b10000 l
b1001 i
b1001 k
b10000 d
b1001 a
b1001 c
b10000 \
b110 Y
b110 [
b10000 T
b100 Q
b100 S
b1101001100110011 h
b1101110001110001 `
b101100000000111 X
b110000011000000 P
b111 5
b111 E
b111 m
b110111011101110 g
b110000110101100 _
b1110010111011010 W
b1101110100011101 O
b110 F
b10011001111100111111000 H
b110111011101110011000011010110011100101110110101101110100011101 4
b110111011101110011000011010110011100101110110101101110100011101 >
b110111011101110011000011010110011100101110110101101110100011101 r
b1011 -
1*
#950000
0*
#955000
b10101 =
b10000 l
b110 i
b110 k
b10000 d
b100 a
b100 c
b10000 \
b101 Y
b101 [
b10000 T
b110 Q
b110 S
b1000001010111 h
b10001100000010 `
b111101000 X
b110100001011000 P
b1000 5
b1000 E
b1000 m
b1010110110001010 g
b1001111011011111 _
b1011110000110101 W
b1101010110000101 O
b111 F
b1100010011001111100111111000 H
b1010110110001010100111101101111110111100001101011101010110000101 4
b1010110110001010100111101101111110111100001101011101010110000101 >
b1010110110001010100111101101111110111100001101011101010110000101 r
b1100 -
1*
#960000
0*
#965000
b100110 =
b10000 l
b1011 i
b1011 k
b10000 d
b1000 a
b1000 c
b10000 \
b1001 Y
b1001 [
b10000 T
b1010 Q
b1010 S
b111110111110100 h
b1101010000111010 `
b11001101111010 X
b1100110110011101 P
b1001 5
b1001 E
b1001 m
b1100000000101001 g
b110100111100111 _
b1000111010100111 W
b111000001000000 O
b1000 F
b1100000000101001011010011110011110001110101001110111000001000000 4
b1100000000101001011010011110011110001110101001110111000001000000 >
b1100000000101001011010011110011110001110101001110111000001000000 r
b1101 -
1*
#970000
0*
#975000
b11111 =
b10000 l
b1100 i
b1100 k
b10000 d
b110 a
b110 c
b10000 \
b110 Y
b110 [
b10000 T
b111 Q
b111 S
b111111111100110 h
b101000011001100 `
b1100000101010100 X
b10100111100100 P
b1010 5
b1010 E
b1010 m
b1100001000111011 g
b1110110100010001 _
b111110010001001 W
b1001010000111001 O
b1001 F
b111100001100010011001111100111111000 H
b1100001000111011111011010001000101111100100010011001010000111001 4
b1100001000111011111011010001000101111100100010011001010000111001 >
b1100001000111011111011010001000101111100100010011001010000111001 r
b1110 -
1*
#980000
0*
#985000
b11011 =
b10000 l
b101 i
b101 k
b10000 d
b1001 a
b1001 c
b10000 \
b110 Y
b110 [
b10000 T
b111 Q
b111 S
b100100101000001 h
b1101010011101010 `
b101000011110000 X
b11000111100100 P
b1011 5
b1011 E
b1011 m
b1111010010011100 g
b110100100110111 _
b1110110100101101 W
b1000110000111001 O
b1010 F
b1000111100001100010011001111100111111000 H
b1111010010011100011010010011011111101101001011011000110000111001 4
b1111010010011100011010010011011111101101001011011000110000111001 >
b1111010010011100011010010011011111101101001011011000110000111001 r
b1111 -
1*
#990000
0*
#995000
b100010 =
b10000 l
b110 i
b110 k
b10000 d
b111 a
b111 c
b10000 \
b1011 Y
b1011 [
b10000 T
b1010 Q
b1010 S
b100011110010 h
b110010100001011 `
b1111110101111 X
b1100111110011010 P
b1100 5
b1100 E
b1100 m
b1011010100101111 g
b1101100011010110 _
b1010001001110010 W
b111001001000111 O
b1011 F
b1001000111100001100010011001111100111111000 H
b1011010100101111110110001101011010100010011100100111001001000111 4
b1011010100101111110110001101011010100010011100100111001001000111 >
b1011010100101111110110001101011010100010011100100111001001000111 r
b10000 -
1*
#1000000
0*
#1005000
b11100 =
b10000 l
b1000 i
b1000 k
b10000 d
b101 a
b101 c
b10000 \
b110 Y
b110 [
b10000 T
b1001 Q
b1001 S
b1010011000101101 h
b101000111000000 `
b1010010001110000 X
b1111101010001010 P
b1101 5
b1101 E
b1101 m
b1101111110000 g
b1110110000011101 _
b1100110101101 W
b100011101010111 O
b1100 F
b1101001000111100001100010011001111100111111000 H
b1101111110000111011000001110100011001101011010100011101010111 4
b1101111110000111011000001110100011001101011010100011101010111 >
b1101111110000111011000001110100011001101011010100011101010111 r
b10001 -
1*
#1010000
0*
#1015000
b11011 =
b10000 l
b111 i
b111 k
b10000 d
b111 a
b111 c
b10000 \
b1000 Y
b1000 [
b10000 T
b101 Q
b101 S
b110100101010010 h
b1010000101111 `
b1011101110010 X
b11100000001100 P
b1110 5
b1110 E
b1110 m
b1101010010001111 g
b1010100111110010 _
b1010101010101111 W
b1000010111010001 O
b1101 F
b1001001101001000111100001100010011001111100111111000 H
b1101010010001111101010011111001010101010101011111000010111010001 4
b1101010010001111101010011111001010101010101011111000010111010001 >
b1101010010001111101010011111001010101010101011111000010111010001 r
b10010 -
1*
#1020000
0*
#1025000
b100100 =
b10000 l
b110 i
b110 k
b10000 d
b1010 a
b1010 c
b10000 \
b1011 Y
b1011 [
b10000 T
b1001 Q
b1001 S
b1010000000011011 h
b101110110001111 `
b1110101110011101 X
b110001111110010 P
b1111 5
b1111 E
b1111 m
b1110111000110 g
b1110000001010010 _
b101011001000000 W
b1101111000101111 O
b1110 F
b101001001101001000111100001100010011001111100111111000 H
b1110111000110111000000101001001010110010000001101111000101111 4
b1110111000110111000000101001001010110010000001101111000101111 >
b1110111000110111000000101001001010110010000001101111000101111 r
b10011 -
1*
#1030000
0*
#1035000
b100011 =
b10000 l
b1010 i
b1010 k
b10000 d
b1001 a
b1001 c
b10000 \
b1001 Y
b1001 [
b10000 T
b111 Q
b111 S
b110111101010101 h
b1111101001010010 `
b10011110111010 X
b11100101000101 P
b10000 5
b10000 E
b10000 m
b1101001010001000 g
b100011110001111 _
b1001101001100111 W
b1000010010011000 O
b1111 F
b11100101001001101001000111100001100010011001111100111111000 H
b1101001010001000010001111000111110011010011001111000010010011000 4
b1101001010001000010001111000111110011010011001111000010010011000 >
b1101001010001000010001111000111110011010011001111000010010011000 r
b10100 -
1*
#1040000
0*
#1045000
b100001 =
b10000 l
b1000 i
b1000 k
b10000 d
b111 a
b111 c
b10000 \
b111 Y
b111 [
b10000 T
b1011 Q
b1011 S
b1001001010011110 h
b1110101000001001 `
b1101000100110010 X
b1011101001011111 P
b1111100111111000 N
b110001001100 V
b11010010001111 ^
b1110011100101001 f
b1000101001001000 g
b10000101111001 _
b10001010000001 W
b1011110001011000 O
b0 F
b11 L
b1110011100101001001101001000111100001100010011001111100111111000 H
b1000101001001000001000010111100100100010100000011011110001011000 4
b1000101001001000001000010111100100100010100000011011110001011000 >
b1000101001001000001000010111100100100010100000011011110001011000 r
b10101 -
1*
#1050000
0*
#1055000
b10001 5
b10001 E
b10001 m
b100 L
b10110 -
1*
#1060000
0*
#1065000
b100100 =
b10000 l
b1010 i
b1010 k
b10000 d
b1000 a
b1000 c
b10000 \
b101 Y
b101 [
b10000 T
b1101 Q
b1101 S
b11011010011111 h
b1111111000000001 `
b1001100010000010 X
b1111101001111111 P
b10010 5
b10010 E
b10010 m
b10111001001001 g
b11010101110001 _
b110101100110001 W
b1111110001111000 O
b1 F
b100001 I
b10111001001001001101010111000101101011001100011111110001111000 4
b10111001001001001101010111000101101011001100011111110001111000 >
b10111001001001001101010111000101101011001100011111110001111000 r
b10111 -
1*
#1070000
0*
#1075000
b11010 =
b10000 l
b1001 i
b1001 k
b10000 d
b101 a
b101 c
b10000 \
b111 Y
b111 [
b10000 T
b101 Q
b101 S
b11100101110011 h
b1110000000110 `
b1001001011001010 X
b110000000011001 P
b10000110100101 g
b1101011101110110 _
b110000101111001 W
b110011000011110 O
b10 F
b100100 J
b10000110100101110101110111011001100001011110010110011000011110 4
b10000110100101110101110111011001100001011110010110011000011110 >
b10000110100101110101110111011001100001011110010110011000011110 r
b11000 -
1*
#1080000
0*
#1085000
b0 5
b0 E
b0 m
b101 L
b11010 K
b11001 -
1*
#1090000
0*
#1095000
b11100 =
b10000 l
b101 i
b101 k
b10000 d
b1001 a
b1001 c
b10000 \
b1000 Y
b1000 [
b10000 T
b110 Q
b110 S
b100010001100010 h
b10101011001111 `
b101010101101100 X
b1101000000011010 P
b101110010110100 g
b1110000110111111 _
b1010011011011111 W
b1101011000011101 O
b0 L
18
b1 9
b1 G
b1 u
b101110010110100111000011011111110100110110111111101011000011101 4
b101110010110100111000011011111110100110110111111101011000011101 >
b101110010110100111000011011111110100110110111111101011000011101 r
b11010 -
1*
#1100000
0*
#1105000
1"
1:
08
b11011 -
1*
#1110000
0*
#1115000
b11100 .
b11100 -
1*
#1120000
0*
#1125000
1*
#1130000
0*
#1135000
1*
#1140000
0*
#1145000
1*
#1150000
0*
#1155000
1*
#1160000
0*
#1165000
b110 ;
b110 }
1*
b0 *"
0'
#1170000
0*
#1175000
1x
10
b100 }
b100 ;
1*
#1180000
0*
#1185000
00
b1 w
0x
0"
0:
b0 ;
b1 ~
b0 }
1*
b111 +"
#1190000
0*
#1195000
1*
#1197500
b1 y
1)
#1200000
0*
#1205000
1*
#1210000
b1 %"
0*
b110 +"
0)
#1215000
1*
#1220000
0*
#1222500
b10 y
1)
#1225000
1*
#1230000
0*
#1235000
b10 %"
1*
b101 +"
0)
#1240000
0*
#1245000
1*
#1247500
b11 y
1)
#1250000
0*
#1255000
1*
#1260000
b11 %"
0*
b100 +"
0)
#1265000
1*
#1270000
0*
#1272500
b100 y
1)
#1275000
1*
#1280000
0*
#1285000
b100 %"
1*
b11 +"
0)
#1290000
0*
#1295000
1*
#1297500
b101 y
1)
#1300000
0*
#1305000
1*
#1310000
b101 %"
0*
b10 +"
0)
#1315000
1*
#1320000
0*
#1322500
b110 y
1)
#1325000
1*
#1330000
0*
#1335000
b110 %"
1*
b1 +"
0)
#1340000
0*
#1345000
1*
#1347500
b111 y
1)
#1350000
0*
#1355000
1*
#1360000
1!
b111 %"
0*
b0 +"
0)
#1365000
1*
#1370000
0*
#1372500
b1000 y
b1 *"
1)
#1375000
1*
#1380000
0*
#1385000
1*
b11111111111111111111111111111111 +"
0)
#1390000
0*
#1395000
1*
#1400000
0*
#1405000
b1 ;
b1 }
b0 y
b0 %"
0!
1*
b1 /
b1 %
b1 )"
1'
#1410000
0*
#1415000
b11 }
b11 ;
1*
#1420000
0*
#1425000
b111 ;
b111 }
1*
#1430000
0*
#1435000
1*
#1440000
0*
#1445000
1*
#1450000
0*
#1455000
1*
#1460000
0*
#1465000
1*
#1470000
0*
#1475000
1*
#1480000
0*
#1485000
1*
#1490000
0*
#1495000
1*
#1500000
0*
#1505000
b110 ;
b110 }
1*
0'
b11111111010111 ,"
b11111111010111 -"
b1 ,
#1510000
0*
#1515000
1x
10
b100 }
b100 ;
1*
#1520000
0*
#1525000
00
0x
b0 ;
b0 }
1*
b10111 ."
#1530000
0*
#1535000
1*
#1537500
b1 y
1)
#1540000
0*
#1545000
1*
#1550000
b1 %"
0*
b10110 ."
0)
#1555000
1*
#1560000
0*
#1562500
b10 y
1)
#1565000
1*
#1570000
0*
#1575000
b10 %"
1*
b10101 ."
0)
#1580000
0*
#1585000
1*
#1587500
b11 y
1)
#1590000
0*
#1595000
1*
#1600000
b11 %"
0*
b10100 ."
0)
#1605000
1*
#1610000
0*
#1612500
b100 y
1)
#1615000
1*
#1620000
0*
#1625000
b100 %"
1*
b10011 ."
0)
#1630000
0*
#1635000
1*
#1637500
b101 y
1)
#1640000
0*
#1645000
1*
#1650000
b101 %"
0*
b10010 ."
0)
#1655000
1*
#1660000
0*
#1662500
b110 y
1)
#1665000
1*
#1670000
0*
#1675000
b110 %"
1*
b10001 ."
0)
#1680000
0*
#1685000
1*
#1687500
b111 y
1)
#1690000
0*
#1695000
1*
#1700000
1!
b111 %"
0*
b10000 ."
0)
#1705000
1*
#1710000
0*
#1712500
b1000 y
1)
#1715000
1*
#1720000
0*
#1725000
1*
b1111 ."
0)
#1730000
0*
#1735000
1*
#1737500
b1001 y
1)
#1740000
0*
#1745000
1*
#1750000
0*
b1110 ."
0)
#1755000
1*
#1760000
0*
#1762500
b1010 y
1)
#1765000
1*
#1770000
0*
#1775000
1*
1(
b1101 ."
0)
#1780000
0*
#1785000
1*
#1787500
b1011 y
b1 $"
1)
#1790000
0*
#1795000
1*
#1800000
0*
b1100 ."
0)
#1805000
1*
#1810000
0*
#1812500
b1100 y
b11 $"
1)
#1815000
1*
#1820000
0*
#1825000
1*
b1011 ."
0)
#1830000
0*
#1835000
1*
#1837500
b1101 y
b111 $"
1)
#1840000
0*
#1845000
1*
#1850000
0*
b1010 ."
0)
#1855000
1*
#1860000
0*
#1862500
b1110 y
b1111 $"
1)
#1865000
1*
#1870000
0*
#1875000
1*
b1001 ."
0)
#1880000
0*
#1885000
1*
#1887500
b1111 y
b11111 $"
1)
#1890000
0*
#1895000
1*
#1900000
0*
b1000 ."
0)
#1905000
1*
#1910000
0*
#1912500
b10000 y
b111111 $"
1)
#1915000
1*
#1920000
0*
#1925000
1*
b111 ."
0)
#1930000
0*
#1935000
1*
#1937500
b10001 y
b1111111 $"
1)
#1940000
0*
#1945000
1*
#1950000
0*
b110 ."
0)
#1955000
1*
#1960000
0*
#1962500
b10010 y
b11111111 $"
1)
#1965000
1*
#1970000
0*
#1975000
1*
0(
b101 ."
0)
#1980000
0*
#1985000
1*
#1987500
b10011 y
b111111110 $"
1)
#1990000
0*
#1995000
1*
#2000000
0*
1(
b100 ."
0)
#2005000
1*
#2010000
0*
#2012500
b10100 y
b1111111101 $"
1)
#2015000
1*
#2020000
0*
#2025000
1*
0(
b11 ."
0)
#2030000
0*
#2035000
1*
#2037500
b10101 y
b11111111010 $"
1)
#2040000
0*
#2045000
1*
#2050000
0*
1(
b10 ."
0)
#2055000
1*
#2060000
0*
#2062500
b10110 y
b111111110101 $"
1)
#2065000
1*
#2070000
0*
#2075000
1*
b1 ."
0)
#2080000
0*
#2085000
1*
#2087500
b10111 y
b1111111101011 $"
1)
#2090000
0*
#2095000
1*
#2100000
0*
b0 ."
0)
#2105000
1*
#2110000
0*
#2112500
b11000 y
b11111111010111 $"
1)
#2115000
1*
#2120000
0*
#2125000
1*
b11111111111111111111111111111111 ."
0)
#2130000
0*
#2135000
1*
#2140000
0*
#2145000
b1 ;
b1 }
b0 y
b0 $"
0""
b11111111010111 !"
b0 %"
0!
1*
b1 -
1'
#2150000
0*
#2155000
b11 }
b110 #"
b11 ;
b10 -
1*
#2160000
0*
#2165000
1v
b111 ;
b100 #"
b111 }
b11 -
1*
#2170000
0*
#2175000
0v
b0 #"
b11111111010111 7
b11111111010111 <
b11111111010111 z
16
b100 -
1*
#2180000
0*
#2185000
b0 F
b1 L
06
b101 -
1*
#2190000
0*
#2195000
b100001 =
b10000 T
b111 Q
b111 S
b10000 \
b1011 Y
b1011 [
b10000 d
b111 a
b111 c
b10000 l
b1000 i
b1000 k
b1011000110101 P
b110011011110111 X
b10000110010111 `
b1001110010011100 h
b1 5
b1 E
b1 m
b11111111010111 N
b11111111010111 V
b11111111010111 ^
b11111111010111 f
b10 L
b110 -
1*
#2200000
0*
